[
    {
        "uid": "b60a7ac7-105f-4768-8c0b-8647d30683d4",
        "custom_clearance_uid": "147c3592-c352-11e9-bbca-309c23b327d0",
        "number": "10216170/150819/0147570",
        "date": "2019-08-15 00:00:00"
    },
    {
        "uid": "a2894f24-f46b-4e07-a6de-915fc78e3c70",
        "custom_clearance_uid": "19e6067a-7c6b-11e9-bbc2-309c23b327d0",
        "number": "10216100/030619/0013519",
        "date": "2019-06-03 00:00:00"
    },
    {
        "uid": "2e50c56f-f3c6-4c4b-83eb-472e53749d9b",
        "custom_clearance_uid": "34a3c7e2-c58c-11e9-bbca-309c23b327d0",
        "number": "10005030/260819/0211869",
        "date": "2019-08-27 00:00:00"
    },
    {
        "uid": "e3b696b4-e198-46d3-8388-ff884671dfe8",
        "custom_clearance_uid": "896f655e-c811-11e9-bbca-309c23b327d0",
        "number": "10216170/270819/0155430",
        "date": "2019-08-28 00:00:00"
    }
]
